{
  "software_id": "15dfd791-3e5f-4f1a-83ef-d5e0ea898a1d",
  "client_name": "Bilirubin Risk Chart",
  "client_uri": "https://example.com/bilirubin-risk-chart/about.html",
  "logo_uri": "https://example.com/bilirubin-risk-chart/images/logo.png",
  "launch_url": "https://example.com/bilirubin-risk-chart/launch.html",
  "redirect_uris": [
    "https://example.com/bilirubin-risk-chart/index.html"
  ],
  "scope": "launch patient/*.read online_access",
  "token_endpoint_auth_method": "none",
  "grant_types": [
    "authorization_code"
  ],
  "fhir_versions": [
    "dstu2", "1.9"
  ]
}