{
  "@context": "http://schema.org",
  "@type": "WebApplication",
  "id": "https://apps.hspconsortium.org/hspc-bilirubin-risk-chart",
  "name": "Bilirubin Chart",
  "description": "This is a demonstration app designed to help clinicians treat newborn hyperbilirubinemia appropriately. Not approved for clinical use.",
  "schemaVersion": "DSTU2",
  "audience": "Practitioner",
  "url": "https://healthservices.atlassian.net/wiki/display/HSPC/HSPC+Bilirubin+Risk+Chart+App",
  "author": {
    "@type": "Organization",
    "name": "HSPConsortium",
    "url": "http://hspconsortium.org",
    "contactPoint": [
      {
        "@type": "ContactPoint",
        "name": "Developer",
        "email": "Amy@iSalusSolutions.com"
      },
      {
        "@type": "ContactPoint",
        "name": "Sales",
        "email": "sales@hspconsortium.com"
      }
    ]
  },
  "image": {
    "@type": "ImageObject",
    "name": "IconSet",
    "url": "https://res.cloudinary.com/hvhxvnxtg/image/upload/v1487200805/ralgab5wye1bw2gvmsky.png",
    "height": "512px",
    "width": "512px",
    "encodingFormat": "png",
    "thumbnail": {
      "@type": "ImageObject",
      "name": "Icon50x50",
      "url": "https://example.com/50x50.png",
      "height": "50px",
      "width": "50px",
      "encodingFormat": "png"
    }
  },
  "screenshot": {
    "@type": "ImageObject",
    "name": "Screenshot1",
    "url": "https://res.cloudinary.com/hvhxvnxtg/image/upload/v1485983049/kujtag7zkihairmz9goq.png",
    "height": "1124px",
    "width": "843px",
    "encodingFormat": "png",
    "thumbnail": {
      "@type": "ImageObject",
      "name": "Icon50x50",
      "url": "https://example.com/50x50.png",
      "height": "50px",
      "width": "50px",
      "encodingFormat": "png"
    }
  },
  "offers": {
    "@type": "Offer",
    "price": "0.00",
    "priceCurrency": "USD",
    "description": "Source code at: https://bitbucket.org/hspconsortium/bilirubin-risk-chart"
  },
  "applicationCategory": [
    "Healthcare", "SMART on FHIR"
  ],
  "applicationSubCategory": [
    "Disease Management", "Risk Calculation", "Data Visualization"
  ],
  "operatingSystem": [
    "Cerner", "Epic", "Allscripts"
  ],
  "potentialAction": [
    {
      "@type": "Action",
      "name": "LaunchUrl",
      "target": {
        "@type": "EntryPoint",
        "httpMethod": "GET",
        "urlTemplate": "https://apps.hspconsortium.org/hspc-bilirubin-risk-chart/static/bilirubin-chart/launch.html"
      }
    },
    {
      "@type": "Action",
      "name": "RedirectUrl",
      "target": {
        "@type": "EntryPoint",
        "httpMethod": "GET",
        "urlTemplate": "https://apps.hspconsortium.org/hspc-bilirubin-risk-chart/static/bilirubin-chart/"
      }
    },
    {
      "@type": "Action",
      "name": "Demo",
      "target": {
        "@type": "EntryPoint",
        "httpMethod": "GET",
        "urlTemplate": "https://apps.hspconsortium.org/hspc-bilirubin-risk-chart/static/bilirubin-chart/demo/patient={7321938|BILIBABY5|BILIBABY4|BILIBABY}"
      }
    }
  ]
}