{
  "id": 15,
  "name": "Bilirubin Chart",
  "short_desc": "This is a demonstration app designed to help clinicians treat newborn hyperbilirubinemia appropriately. Not approved for clinical use.",
  "links": {
    "manifest": "https://gallery.smarthealthit.org:443/manifest/15",
    "page": "https://gallery.smarthealthit.org:443/apps/15",
    "website": "http://hspconsortium.org",
    "launch": "https://gallery.smarthealthit.org:443/launch/15"
  },
  "smart_version": "DSTU2",
  "redirect_url": "https://apps.hspconsortium.org/hspc-bilirubin-risk-chart/static/bilirubin-chart/",
  "launch_url": "https://apps.hspconsortium.org/hspc-bilirubin-risk-chart/static/bilirubin-chart/launch.html"
}